-----BEGIN PGP SIGNATURE-----

iHUEABYKAB0WIQTdFzjfLGn8URFmteMDXuYJgEtROQUCY9b30QAKCRADXuYJgEtR
OSjTAP9lDodiSjRqExKoWtawudmizQ0TrZBVlqUCuditeldtFgD7BWAm4vish3uS
3fBgmMKPihJbpQ8CPI7NQlRPynrM+gw=
=ZqHZ
-----END PGP SIGNATURE-----
